<?xml version="1.0" encoding="utf-8"?>
<!-- Generator: Adobe Illustrator 18.1.1, SVG Export Plug-In . SVG Version: 6.00 Build 0)  -->
<svg version="1.1" id="Layer_1" xmlns="http://www.w3.org/2000/svg" xmlns:xlink="http://www.w3.org/1999/xlink" x="0px" y="0px"
	 width="56px" height="48px" viewBox="0 0 56 48" style="enable-background:new 0 0 56 48;" xml:space="preserve">
<style type="text/css">
	.st0{fill:#FFFFFF;}
	.st1{fill:#F3F3F3;}
	.st2{fill:#86D6F6;}
	.st3{fill:#F92E50;}
	.st4{fill:#7F3B96;}
	.st5{fill-rule:evenodd;clip-rule:evenodd;fill:#F0F0F0;}
	.st6{fill:#491C63;}
	.st7{fill:url(#Rectangle_12_copy_1_);}
	.st8{fill:#F0F0F0;}
	.st9{fill:#D8D8D8;}
	.st10{fill:#A06E54;}
	.st11{fill:#4962AC;}
	.st12{fill:#5B7FA6;}
	.st13{fill-rule:evenodd;clip-rule:evenodd;fill:#FFFFFF;}
	.st14{fill:#7B3B8F;}
	.st15{fill:#D7D7D7;}
	.st16{fill:#532075;}
	.st17{fill-rule:evenodd;clip-rule:evenodd;}
	.st18{fill-rule:evenodd;clip-rule:evenodd;fill:#1A1A18;}
	.st19{fill-rule:evenodd;clip-rule:evenodd;fill:none;stroke:#1A1A18;stroke-miterlimit:10;}
	.st20{fill:none;stroke:#1A1A18;stroke-linecap:round;stroke-linejoin:round;stroke-miterlimit:10;}
	.st21{fill:#B2B2B2;}
	.st22{fill:#8B8B8B;}
	.st23{fill:#0E61A4;}
	.st24{fill:#EE7500;}
	.st25{fill:#EA5031;}
	.st26{fill:#03AEE4;}
	.st27{fill:#5E81A8;}
	.st28{clip-path:url(#SVGID_2_);}
	.st29{clip-path:url(#SVGID_4_);}
	.st30{fill:#F9E82E;}
	.st31{fill:#66EB58;}
	.st32{fill:#58EBDF;}
	.st33{fill:#69C4E8;}
	.st34{fill:#4A4A4A;}
	.st35{fill:#A0A0A0;}
	.st36{fill:#3C3C3C;}
	.st37{fill:#424242;}
</style>
<g>
	<path class="st8" d="M1.1,21.5L21.5,1.2C22.2,0.5,23.3,0,24.2,0c0.9,0,1.8,0.5,2.6,1.2c1.5,1.5,1.5,3.7,0,5.2L9.1,24l17.8,17.6
		c1.5,1.5,1.5,3.7,0,5.2c-1.5,1.5-3.8,1.5-5.4,0L1.1,26.6C0.3,25.9,0,25,0,24C0,23,0.3,22.2,1.1,21.5L1.1,21.5z"/>
</g>
<g>
	<path class="st8" d="M54.9,21.5C55.7,22.2,56,23,56,24c0,0.9-0.3,1.8-1.1,2.6L34.5,46.9c-1.5,1.5-3.8,1.5-5.4,0
		c-1.5-1.5-1.5-3.7,0-5.2L46.9,24L29.2,6.4c-1.5-1.5-1.5-3.7,0-5.2C29.9,0.5,30.8,0,31.8,0c0.9,0,2,0.5,2.8,1.2L54.9,21.5L54.9,21.5
		z"/>
</g>
</svg>
