<?xml version="1.0" encoding="utf-8"?>
<!-- Generator: Adobe Illustrator 18.1.1, SVG Export Plug-In . SVG Version: 6.00 Build 0)  -->
<svg version="1.1" id="Layer_1" xmlns="http://www.w3.org/2000/svg" xmlns:xlink="http://www.w3.org/1999/xlink" x="0px" y="0px"
	 width="200px" height="40px" viewBox="0 0 200 40" style="enable-background:new 0 0 200 40;" xml:space="preserve">
<style type="text/css">
	.st0{fill:#FFFFFF;}
	.st1{fill:#F3F3F3;}
	.st2{fill:#86D6F6;}
	.st3{fill:#F92E50;}
	.st4{fill:#7F3B96;}
	.st5{fill-rule:evenodd;clip-rule:evenodd;fill:#F0F0F0;}
	.st6{fill:#491C63;}
	.st7{fill:url(#Rectangle_12_copy_1_);}
	.st8{fill:#F0F0F0;}
	.st9{fill:#D8D8D8;}
	.st10{fill:#A06E54;}
	.st11{fill:#4962AC;}
	.st12{fill:#5B7FA6;}
	.st13{fill-rule:evenodd;clip-rule:evenodd;fill:#FFFFFF;}
	.st14{fill:#7B3B8F;}
	.st15{fill:#D7D7D7;}
	.st16{fill:#532075;}
	.st17{fill-rule:evenodd;clip-rule:evenodd;}
	.st18{fill-rule:evenodd;clip-rule:evenodd;fill:#1A1A18;}
	.st19{fill-rule:evenodd;clip-rule:evenodd;fill:none;stroke:#1A1A18;stroke-miterlimit:10;}
	.st20{fill:none;stroke:#1A1A18;stroke-linecap:round;stroke-linejoin:round;stroke-miterlimit:10;}
	.st21{fill:#B2B2B2;}
	.st22{fill:#8B8B8B;}
	.st23{fill:#0E61A4;}
	.st24{fill:#EE7500;}
	.st25{fill:#EA5031;}
	.st26{fill:#03AEE4;}
	.st27{fill:#5E81A8;}
	.st28{clip-path:url(#SVGID_2_);}
	.st29{clip-path:url(#SVGID_4_);}
	.st30{fill:#F9E82E;}
	.st31{fill:#66EB58;}
	.st32{fill:#58EBDF;}
	.st33{fill:#69C4E8;}
	.st34{fill:#4A4A4A;}
	.st35{fill:#A0A0A0;}
	.st36{fill:#3C3C3C;}
	.st37{fill:#424242;}
</style>
<g>
	<g>
		<g>
			<path class="st17" d="M19.7,15.5l-1.8,4.1c-0.2,0.4-0.6,0.5-1,0.4l0,0c-0.4-0.2-0.5-0.6-0.4-1c1-2.4,2.1-4.8,3.1-7.2l-2.5,1.1
				c-0.6,0.3-1.1,0-1.5-0.4h0c-0.4-0.5-0.1-1.3,0.4-1.5c1.3-0.6,5.4-2.7,6.4-2.9c1-0.5,2.2-0.5,3.3,0c2.3,1,3.1,3.7,1.9,5.8
				c-1,2.4-2,4.7-3.1,7c-0.2,0.4-0.6,0.5-1,0.4l0,0c-0.4-0.2-0.5-0.6-0.4-1l1.4-3.3c0.2-0.5-0.5-0.8-0.7-0.3l-2,4.7
				c-0.2,0.4-0.6,0.5-1,0.4l0,0c-0.4-0.2-0.5-0.6-0.4-1l1.8-4.1c0.2-0.4-0.5-0.7-0.7-0.3l-2.1,4.9c-0.2,0.4-0.6,0.5-1,0.4l0,0
				c-0.4-0.2-0.5-0.6-0.4-1l2.1-4.9C20.6,15.3,19.9,15.1,19.7,15.5z"/>
		</g>
	</g>
	<g>
		<path class="st17" d="M28.4,16.4L28,18.2c-0.4,0.1-0.9,0.1-1.3,0c-0.1,0.3-0.3,0.6-0.4,0.9c0.5,0.1,1,0,1.5,0l-2.1,9.1H14.4
			l-2.1-9.1c1.4,0.1,3-0.4,3.9-1.7c0.1,0.1,0.1,0.1,0.2,0.2l0.3-0.7c-0.2-0.2-0.3-0.3-0.5-0.5c-0.8,1.1-2.5,2-4.1,1.9l-0.4-1.9h-1
			l2.9,12.8c3.9,0,8.8,0,12.8,0h0.1l2.9-12.8H28.4z"/>
	</g>
</g>
<g>
	<g>
		<g>
			<path d="M109,29.2H89.6l9.7-16.8L109,29.2z M91.3,28.2h15.9l-8-13.8L91.3,28.2z"/>
		</g>
	</g>
	<g>
		<g>
			<g>
				<path d="M88.3,27.5c-0.2,0-0.3-0.1-0.4-0.2c-0.1-0.2-0.1-0.5,0.2-0.7l22.1-14c0.2-0.1,0.5-0.1,0.7,0.2c0.1,0.2,0.1,0.5-0.2,0.7
					l-22.1,14C88.4,27.5,88.3,27.5,88.3,27.5z"/>
			</g>
		</g>
		<g>
			<g>
				<path d="M110.3,27.5c-0.1,0-0.2,0-0.3-0.1L88,13.4c-0.2-0.1-0.3-0.5-0.2-0.7c0.1-0.2,0.5-0.3,0.7-0.2l22.1,14
					c0.2,0.1,0.3,0.5,0.2,0.7C110.6,27.4,110.5,27.5,110.3,27.5z"/>
			</g>
		</g>
	</g>
</g>
<g>
	<g>
		<g>
			<path class="st17" d="M140,13.1c-3.8,0-6.9,3.1-6.9,6.9c0,3.8,3.1,6.9,6.9,6.9c3.8,0,6.9-3.1,6.9-6.9
				C146.8,16.2,143.8,13.1,140,13.1L140,13.1z M140,14.1c3.2,0,5.9,2.6,5.9,5.9c0,3.3-2.6,5.9-5.9,5.9c-3.3,0-5.9-2.6-5.9-5.9
				C134.1,16.7,136.7,14.1,140,14.1z"/>
		</g>
	</g>
	<g>
		<g>
			<g>
				<path d="M129,27.5c-0.2,0-0.3-0.1-0.4-0.2c-0.1-0.2-0.1-0.5,0.2-0.7l22.1-14c0.2-0.1,0.5-0.1,0.7,0.2c0.1,0.2,0.1,0.5-0.2,0.7
					l-22.1,14C129.1,27.5,129.1,27.5,129,27.5z"/>
			</g>
		</g>
		<g>
			<g>
				<path d="M151,27.5c-0.1,0-0.2,0-0.3-0.1l-22.1-14c-0.2-0.1-0.3-0.5-0.2-0.7c0.1-0.2,0.5-0.3,0.7-0.2l22.1,14
					c0.2,0.1,0.3,0.5,0.2,0.7C151.4,27.4,151.2,27.5,151,27.5z"/>
			</g>
		</g>
	</g>
</g>
<g>
	<g>
		<g>
			<path class="st17" d="M179.8,13.1c-3.8,0-6.9,3.1-6.9,6.9c0,3.8,3.1,6.9,6.9,6.9c3.8,0,6.9-3.1,6.9-6.9
				C186.7,16.2,183.6,13.1,179.8,13.1L179.8,13.1z M188.6,11.2v17.7H171V11.2H188.6L188.6,11.2z M187.6,12.1v15.7h-15.7V12.1H187.6
				L187.6,12.1z M179.8,14.1c3.2,0,5.9,2.6,5.9,5.9c0,3.3-2.6,5.9-5.9,5.9c-3.3,0-5.9-2.6-5.9-5.9C173.9,16.7,176.5,14.1,179.8,14.1
				z"/>
		</g>
	</g>
	<g>
		<g>
			<g>
				<path d="M168.7,27.5c-0.2,0-0.3-0.1-0.4-0.2c-0.1-0.2-0.1-0.5,0.2-0.7l22.1-14c0.2-0.1,0.5-0.1,0.7,0.2c0.1,0.2,0.1,0.5-0.2,0.7
					l-22.1,14C168.9,27.5,168.8,27.5,168.7,27.5z"/>
			</g>
		</g>
		<g>
			<g>
				<path d="M190.8,27.5c-0.1,0-0.2,0-0.3-0.1l-22.1-14c-0.2-0.1-0.3-0.5-0.2-0.7c0.1-0.2,0.5-0.3,0.7-0.2l22.1,14
					c0.2,0.1,0.3,0.5,0.2,0.7C191.1,27.4,191,27.5,190.8,27.5z"/>
			</g>
		</g>
	</g>
</g>
<g>
	<g>
		<g>
			<g>
				<polygon class="st17" points="66.2,16.4 67.2,16.4 68.4,29.2 67.4,29.2 				"/>
			</g>
		</g>
		<g>
			<g>
				<rect x="50.8" y="16.4" class="st17" width="15.6" height="1.1"/>
			</g>
		</g>
		<g>
			<g>
				<path class="st17" d="M49.2,29.2c0-3.9,1.8-7.8,5.9-7.8h12v1h-12c-3,0-4.5,2.6-4.9,5.9h17.7v1H49.2z"/>
			</g>
		</g>
	</g>
	<g>
		<g>
			<g>
				<path d="M48.5,32.7c-0.2,0-0.3-0.1-0.4-0.2C48,32.3,48,32,48.3,31.8l22.1-14c0.2-0.1,0.5-0.1,0.7,0.2c0.1,0.2,0.1,0.5-0.2,0.7
					l-22.1,14C48.7,32.7,48.6,32.7,48.5,32.7z"/>
			</g>
		</g>
		<g>
			<g>
				<path d="M70.6,32.7c-0.1,0-0.2,0-0.3-0.1l-22.1-14C48,18.5,48,18.2,48.1,18c0.1-0.2,0.5-0.3,0.7-0.2l22.1,14
					c0.2,0.1,0.3,0.5,0.2,0.7C70.9,32.7,70.8,32.7,70.6,32.7z"/>
			</g>
		</g>
	</g>
</g>
</svg>
