<?xml version="1.0" encoding="utf-8"?>
<!-- Generator: Adobe Illustrator 18.1.1, SVG Export Plug-In . SVG Version: 6.00 Build 0)  -->
<svg version="1.1" id="Layer_1" xmlns="http://www.w3.org/2000/svg" xmlns:xlink="http://www.w3.org/1999/xlink" x="0px" y="0px"
	 width="36px" height="72px" viewBox="0 0 36 72" style="enable-background:new 0 0 36 72;" xml:space="preserve">
<style type="text/css">
	.st0{fill:#FFFFFF;}
	.st1{fill:#F3F3F3;}
	.st2{fill:#86D6F6;}
	.st3{fill:#F92E50;}
	.st4{fill:#7F3B96;}
	.st5{fill-rule:evenodd;clip-rule:evenodd;fill:#F0F0F0;}
	.st6{fill:#491C63;}
	.st7{fill:url(#Rectangle_12_copy_1_);}
	.st8{fill:#F0F0F0;}
	.st9{fill:#D8D8D8;}
	.st10{fill:#A06E54;}
	.st11{fill:#4962AC;}
	.st12{fill:#5B7FA6;}
	.st13{fill-rule:evenodd;clip-rule:evenodd;fill:#FFFFFF;}
	.st14{fill:#7B3B8F;}
	.st15{fill:#D7D7D7;}
	.st16{fill:#532075;}
	.st17{fill-rule:evenodd;clip-rule:evenodd;}
	.st18{fill-rule:evenodd;clip-rule:evenodd;fill:#1A1A18;}
	.st19{fill-rule:evenodd;clip-rule:evenodd;fill:none;stroke:#1A1A18;stroke-miterlimit:10;}
	.st20{fill:none;stroke:#1A1A18;stroke-linecap:round;stroke-linejoin:round;stroke-miterlimit:10;}
	.st21{fill:#B2B2B2;}
	.st22{fill:#8B8B8B;}
	.st23{fill:#0E61A4;}
	.st24{fill:#EE7500;}
	.st25{fill:#EA5031;}
	.st26{fill:#03AEE4;}
	.st27{fill:#5E81A8;}
	.st28{clip-path:url(#SVGID_2_);}
	.st29{clip-path:url(#SVGID_4_);}
	.st30{fill:#F9E82E;}
	.st31{fill:#66EB58;}
	.st32{fill:#58EBDF;}
	.st33{fill:#69C4E8;}
	.st34{fill:#4A4A4A;}
	.st35{fill:#A0A0A0;}
	.st36{fill:#3C3C3C;}
	.st37{fill:#424242;}
</style>
<g>
	<path class="st15" d="M19.4,18l6.3-6.3c0.4-0.4,0.4-1,0-1.4s-1-0.4-1.4,0L18,16.6l-6.3-6.3c-0.4-0.4-1-0.4-1.4,0s-0.4,1,0,1.4
		l6.3,6.3l-6.3,6.3c-0.4,0.4-0.4,1,0,1.4c0.2,0.2,0.5,0.3,0.7,0.3s0.5-0.1,0.7-0.3l6.3-6.3l6.3,6.3c0.2,0.2,0.5,0.3,0.7,0.3
		s0.5-0.1,0.7-0.3c0.4-0.4,0.4-1,0-1.4L19.4,18z"/>
</g>
<g>
	<path class="st15" d="M18,2c8.8,0,16,7.2,16,16s-7.2,16-16,16S2,26.8,2,18S9.2,2,18,2 M18,0C8.1,0,0,8.1,0,18s8.1,18,18,18
		s18-8.1,18-18S27.9,0,18,0L18,0z"/>
</g>
<g>
	<path class="st3" d="M19.4,54l6.3-6.3c0.4-0.4,0.4-1,0-1.4s-1-0.4-1.4,0L18,52.6l-6.3-6.3c-0.4-0.4-1-0.4-1.4,0s-0.4,1,0,1.4
		l6.3,6.3l-6.3,6.3c-0.4,0.4-0.4,1,0,1.4c0.2,0.2,0.5,0.3,0.7,0.3s0.5-0.1,0.7-0.3l6.3-6.3l6.3,6.3c0.2,0.2,0.5,0.3,0.7,0.3
		s0.5-0.1,0.7-0.3c0.4-0.4,0.4-1,0-1.4L19.4,54z"/>
</g>
<g>
	<path class="st3" d="M18,38c8.8,0,16,7.2,16,16s-7.2,16-16,16S2,62.8,2,54S9.2,38,18,38 M18,36C8.1,36,0,44.1,0,54s8.1,18,18,18
		s18-8.1,18-18S27.9,36,18,36L18,36z"/>
</g>
</svg>
