<?xml version="1.0" encoding="utf-8"?>
<!-- Generator: Adobe Illustrator 18.1.1, SVG Export Plug-In . SVG Version: 6.00 Build 0)  -->
<svg version="1.1" id="Layer_1" xmlns="http://www.w3.org/2000/svg" xmlns:xlink="http://www.w3.org/1999/xlink" x="0px" y="0px"
	 width="45px" height="45px" viewBox="212 788.3 45 45" enable-background="new 212 788.3 45 45" xml:space="preserve">
<g>
	<path fill="#D7D7D7" d="M241.2,801.4c1.6,0,2.9,1.3,2.9,2.9c0,0.7-0.2,1.3-0.6,1.8l-1.2,1.2l-4.1-4.1l1.2-1.2
		C239.9,801.7,240.5,801.4,241.2,801.4z M226.6,814.9l-1.2,5.3l5.3-1.2l10.8-10.8l-4.1-4.1L226.6,814.9z M238.5,808.1l-8.2,8.2l-1-1
		l8.2-8.2L238.5,808.1z"/>
</g>
</svg>
