<?xml version="1.0" encoding="utf-8"?>
<!-- Generator: Adobe Illustrator 18.1.1, SVG Export Plug-In . SVG Version: 6.00 Build 0)  -->
<svg version="1.1" id="Layer_1" xmlns="http://www.w3.org/2000/svg" xmlns:xlink="http://www.w3.org/1999/xlink" x="0px" y="0px"
	 width="45px" height="45px" viewBox="122 657.3 45 45" enable-background="new 122 657.3 45 45" xml:space="preserve">
<g>
	<g>
		<path fill="#D7D7D7" d="M144.2,680.2c-0.6,0-1.5,0.8-1.5,1.7c0,0.5,0.2,0.9,0.4,1.2v1.7c0,0.4,0.3,0.5,0.6,0.5c0.1,0,0.3,0,0.4,0
			c0.1,0,0.2,0,0.3,0c0.4,0,0.8,0,0.8-0.5v-1.7c0.3-0.3,0.4-0.7,0.4-1.2C145.7,681,144.9,680.2,144.2,680.2z"/>
	</g>
	<g>
		<path fill="#D7D7D7" d="M151.2,676.3L151.2,676.3c-0.2-4-3.1-7.1-7-7.1s-6.8,3-7,7.1l0,0h-2v2v9v2h2h14h2v-2v-9v-2H151.2z
			 M151.2,687.3h-14v-9h2v-1.7c0-3,2-5.4,5-5.4c2.9,0,4.8,2.2,5,5.1h-2c-0.1-1.7-1.2-3.1-3-3.1c-1.9,0-3,1.5-3,3.4v1.7h4h2l0,0h2h2
			V687.3z M145.2,676.3h-2c0.1-0.5,0.3-1.1,1-1.1S145.1,675.8,145.2,676.3z"/>
	</g>
</g>
</svg>
