<?xml version="1.0" encoding="utf-8"?>
<!-- Generator: Adobe Illustrator 18.1.1, SVG Export Plug-In . SVG Version: 6.00 Build 0)  -->
<svg version="1.1" id="Layer_1" xmlns="http://www.w3.org/2000/svg" xmlns:xlink="http://www.w3.org/1999/xlink" x="0px" y="0px"
	 width="45px" height="45px" viewBox="-58 400.7 45 45" enable-background="new -58 400.7 45 45" xml:space="preserve">
<g>
	<path fill="#D7D7D7" d="M-25.3,418.7v-0.1v-0.1c-0.1-1.6-1.5-2.9-3.1-2.9h-13.7l0,0h-0.2c-1.3,0-2.3,0.7-2.8,1.8l0,0
		c-0.1,0.1-0.1,0.3-0.1,0.4c0,0.1-0.1,0.1-0.1,0.2c0,0.2-0.1,0.4-0.1,0.6v2.2v5.5v0.1c0,1.7,1.4,3.1,3.1,3.1h13.8
		c1.7,0,3.1-1.4,3.1-3.1L-25.3,418.7L-25.3,418.7z M-29.2,427.6h-12.3c-0.1,0-0.2,0-0.3,0c-0.2,0-0.5-0.1-0.7-0.2l4-3.4
		c0.1,0.1,0.3,0.1,0.4,0.2c0.3,0.2,0.6,0.4,0.8,0.5c0.3,0.1,0.5,0.3,0.8,0.3c0.3,0.1,0.6,0.2,1,0.2l0,0c0.3,0,0.7-0.1,1-0.2
		s0.6-0.2,0.8-0.3c0.2-0.1,0.5-0.3,0.8-0.5l0.3-0.2l4,3.4c0.1,0.2-0.1,0.3-0.4,0.3C-29,427.7-29.1,427.7-29.2,427.6z M-43.4,418.6
		c0-0.2,0.1-0.5,0.3-0.6c0.3-0.2,0.6-0.4,1-0.4h0.1h13.2l0,0c0.3,0,0.7,0.1,1,0.3c0.3,0.2,0.5,0.5,0.5,0.8c0,0.4-0.2,0.4-0.6,0.7
		c-0.4,0.3-0.6,0.5-1.1,0.8c-1.4,0.8-2.3,1.4-3.1,1.8c-0.4,0.2-0.8,0.5-1,0.6l-0.1,0.1l-0.2,0.1c-0.2,0.1-0.4,0.2-0.5,0.3
		s-0.3,0.1-0.5,0.2c-0.2,0.1-0.3,0.1-0.5,0.2c-0.1,0-0.3,0.1-0.4,0.1l0,0c-0.2,0-0.3,0-0.4-0.1c-0.2,0-0.3-0.1-0.5-0.2
		c-0.2-0.1-0.3-0.2-0.5-0.2c-0.1-0.1-0.3-0.2-0.5-0.3l-0.2-0.1l-0.1-0.1c-0.2-0.1-0.7-0.3-1-0.5c-0.4-0.2-0.9-0.5-1.4-0.8
		c-1-0.6-1.7-1-1.9-1.1c-0.4-0.1-0.7-0.4-1-0.6s-0.4-0.5-0.5-0.8C-43.4,418.7-43.4,418.6-43.4,418.6z M-27.4,420.9v5.5l-4-3.2
		c0.8-0.5,1.9-1,3.1-1.7l0,0C-27.9,421.4-27.6,421.2-27.4,420.9z M-42.5,421.6L-42.5,421.6c1.3,0.7,2.3,1.3,3.1,1.7l-4,3.2V421
		C-43.1,421.2-42.8,421.4-42.5,421.6z"/>
</g>
</svg>
