<?xml version="1.0" encoding="utf-8"?>
<!-- Generator: Adobe Illustrator 18.1.1, SVG Export Plug-In . SVG Version: 6.00 Build 0)  -->
<svg version="1.1" id="Layer_1" xmlns="http://www.w3.org/2000/svg" xmlns:xlink="http://www.w3.org/1999/xlink" x="0px" y="0px"
	 width="17px" height="17px" viewBox="0 0 17 17" style="enable-background:new 0 0 17 17;" xml:space="preserve">
<style type="text/css">
	.st0{fill:#FFFFFF;}
	.st1{fill:#86D6F6;}
	.st2{fill:#F92E50;}
	.st3{fill:#7F3B96;}
	.st4{fill-rule:evenodd;clip-rule:evenodd;fill:#F0F0F0;}
	.st5{fill:#491C63;}
	.st6{fill:url(#Rectangle_12_copy_1_);}
	.st7{fill:#F0F0F0;}
	.st8{fill:#D8D8D8;}
</style>
<polygon class="st3" points="17,8 9,8 9,0 8,0 8,8 0,8 0,9 8,9 8,17 9,17 9,9 17,9 "/>
</svg>
