<?xml version="1.0" encoding="utf-8"?>
<!-- Generator: Adobe Illustrator 18.1.1, SVG Export Plug-In . SVG Version: 6.00 Build 0)  -->
<svg version="1.1" id="Layer_1" xmlns="http://www.w3.org/2000/svg" xmlns:xlink="http://www.w3.org/1999/xlink" x="0px" y="0px"
	 width="500px" height="544px" viewBox="0 0 500 544" style="enable-background:new 0 0 500 544;" xml:space="preserve">
<style type="text/css">
	.st0{fill:#FFFFFF;}
	.st1{fill:#86D6F6;}
	.st2{fill:#F92E50;}
	.st3{fill:#7F3B96;}
	.st4{fill-rule:evenodd;clip-rule:evenodd;fill:#F0F0F0;}
	.st5{fill:#491C63;}
	.st6{fill:url(#Rectangle_12_copy_1_);}
	.st7{fill:#F0F0F0;}
	.st8{fill:#D8D8D8;}
	.st9{fill:#A06E54;}
	.st10{fill:#4962AC;}
	.st11{fill:#5B7FA6;}
	.st12{font-family:'MyriadPro-Regular';}
	.st13{font-size:12;}
	.st14{fill-rule:evenodd;clip-rule:evenodd;fill:#FFFFFF;}
	.st15{fill:#7B3B8F;}
	.st16{fill:#D7D7D7;}
	.st17{fill:#532075;}
	.st18{fill-rule:evenodd;clip-rule:evenodd;}
	.st19{fill-rule:evenodd;clip-rule:evenodd;fill:#1A1A18;}
	.st20{fill-rule:evenodd;clip-rule:evenodd;fill:none;stroke:#1A1A18;stroke-miterlimit:10;}
	.st21{fill:none;stroke:#1A1A18;stroke-linecap:round;stroke-linejoin:round;stroke-miterlimit:10;}
	.st22{fill:#B2B2B2;}
	.st23{fill:none;stroke:#000000;stroke-width:2;stroke-linecap:round;stroke-linejoin:round;stroke-miterlimit:10;}
	.st24{fill:none;stroke:#000000;stroke-width:2;stroke-miterlimit:10;}
	.st25{fill:#8B8B8B;}
</style>
<text transform="matrix(1 0 0 1 0 -16.3706)" class="st0 st12 st13">mask-card</text>
<path class="st14" d="M0,0v544h500V0H0z M480,316c0,114.9-93.1,208-208,208h-44c-114.9,0-208-93.1-208-208v-84
	c0-114.9,93.1-208,208-208h44c114.9,0,208,93.1,208,208V316z"/>
</svg>
