<?xml version="1.0" encoding="utf-8"?>
<!-- Generator: Adobe Illustrator 18.1.1, SVG Export Plug-In . SVG Version: 6.00 Build 0)  -->
<svg version="1.1" id="Layer_1" xmlns="http://www.w3.org/2000/svg" xmlns:xlink="http://www.w3.org/1999/xlink" x="0px" y="0px"
	 width="10px" height="22px" viewBox="0 0 10 22" style="enable-background:new 0 0 10 22;" xml:space="preserve">
<style type="text/css">
	.st0{fill:#FFFFFF;}
	.st1{fill:#F3F3F3;}
	.st2{fill:#86D6F6;}
	.st3{fill:#F92E50;}
	.st4{fill:#7F3B96;}
	.st5{fill-rule:evenodd;clip-rule:evenodd;fill:#F0F0F0;}
	.st6{fill:#491C63;}
	.st7{fill:url(#Rectangle_12_copy_1_);}
	.st8{fill:#F0F0F0;}
	.st9{fill:#D8D8D8;}
	.st10{fill:#A06E54;}
	.st11{fill:#4962AC;}
	.st12{fill:#5B7FA6;}
	.st13{fill-rule:evenodd;clip-rule:evenodd;fill:#FFFFFF;}
	.st14{fill:#7B3B8F;}
	.st15{fill:#D7D7D7;}
	.st16{fill:#532075;}
	.st17{fill-rule:evenodd;clip-rule:evenodd;}
	.st18{fill-rule:evenodd;clip-rule:evenodd;fill:#1A1A18;}
	.st19{fill-rule:evenodd;clip-rule:evenodd;fill:none;stroke:#1A1A18;stroke-miterlimit:10;}
	.st20{fill:none;stroke:#1A1A18;stroke-linecap:round;stroke-linejoin:round;stroke-miterlimit:10;}
	.st21{fill:#B2B2B2;}
	.st22{fill:#8B8B8B;}
	.st23{fill:#0E61A4;}
	.st24{fill:#EE7500;}
	.st25{fill:#EA5031;}
	.st26{fill:#03AEE4;}
	.st27{fill:#5E81A8;}
	.st28{clip-path:url(#SVGID_2_);}
	.st29{clip-path:url(#SVGID_4_);}
	.st30{fill:#F9E82E;}
	.st31{fill:#66EB58;}
	.st32{fill:#58EBDF;}
	.st33{fill:#69C4E8;}
	.st34{fill:#4A4A4A;}
	.st35{fill:#A0A0A0;}
	.st36{fill:#3C3C3C;}
	.st37{fill:#424242;}
</style>
<g>
	<path class="st9" d="M9.8,6c-0.4-0.4-1-0.5-1.4-0.1L6,7.9V1c0-0.6-0.4-1-1-1S4,0.4,4,1v6.9l-2.4-2C1.2,5.5,0.6,5.6,0.2,6
		C-0.1,6.4-0.1,7,0.4,7.4l4,3.4c0,0,0.1,0.1,0.2,0.1c0,0,0,0,0,0c0,0,0.1,0,0.1,0.1c0,0,0,0,0,0C4.8,11,4.9,11,5,11c0,0,0,0,0,0
		s0,0,0,0s0,0,0,0s0,0,0,0c0.1,0,0.2,0,0.4-0.1c0,0,0,0,0,0c0,0,0.1,0,0.1-0.1c0,0,0,0,0,0c0.1,0,0.1,0,0.2-0.1l4-3.4
		C10.1,7,10.1,6.4,9.8,6z"/>
</g>
<g>
	<path class="st4" d="M9.8,17c-0.4-0.4-1-0.5-1.4-0.1l-2.4,2V12c0-0.6-0.4-1-1-1s-1,0.4-1,1v6.9l-2.4-2c-0.4-0.4-1.1-0.3-1.4,0.1
		c-0.4,0.4-0.3,1.1,0.1,1.4l4,3.4c0,0,0.1,0.1,0.2,0.1c0,0,0,0,0,0c0,0,0.1,0,0.1,0.1c0,0,0,0,0,0C4.8,22,4.9,22,5,22c0,0,0,0,0,0
		s0,0,0,0s0,0,0,0s0,0,0,0c0.1,0,0.2,0,0.4-0.1c0,0,0,0,0,0c0,0,0.1,0,0.1-0.1c0,0,0,0,0,0c0.1,0,0.1,0,0.2-0.1l4-3.4
		C10.1,18,10.1,17.4,9.8,17z"/>
</g>
</svg>
