<?xml version="1.0" encoding="utf-8"?>
<!-- Generator: Adobe Illustrator 18.1.1, SVG Export Plug-In . SVG Version: 6.00 Build 0)  -->
<svg version="1.1" id="Layer_1" xmlns="http://www.w3.org/2000/svg" xmlns:xlink="http://www.w3.org/1999/xlink" x="0px" y="0px"
	 width="60px" height="60px" viewBox="-43 324.7 60 60" enable-background="new -43 324.7 60 60" xml:space="preserve">
<g>
	<ellipse id="Ellipse_3_copy_2_" fill="#86D6F6" cx="-12.5" cy="377.2" rx="17.5" ry="1.5"/>
	<polygon fill="#FFFFFF" points="4.4,366.6 -3.6,343.1 -3.9,342.1 -4.9,342.5 -10.4,344.4 -12.3,338.9 -12.6,337.9 -13.6,338.3 
		-28.7,343.4 -29.7,343.8 -29.3,344.7 -19.1,374.7 -18.8,375.6 -17.8,375.3 3.8,367.9 4.7,367.6 	"/>
	<path fill="#7F3B96" d="M-11.4,336.2l-19.9,6.8l11.7,34.2l26-8.9L-3.2,340L-11.4,336.2z M-10.9,338.9l5.2,2.5l-3.9,1.3L-10.9,338.9
		z M3.5,367l-21.6,7.4l-10.2-30l15.2-5.2l2.2,6.4l6.5-2.2L3.5,367z"/>
	<path id="Shape_8_copy_3" fill="#F92E50" d="M-5.9,355.4c-1.1-1.9-4.2-2.2-4.8-2.2l-1.7,0.6l0.7-1.2c0.5-0.8,0.6-1.7,0.3-2.6
		c-0.1-0.4-0.4-0.8-0.7-1.1l-0.2-0.2l0.2-0.3c0.2-0.3,0.2-0.8,0.1-1.1c-0.2-0.7-0.9-1.1-1.6-0.9c-0.6,0.2-0.9,0.7-1,1.3v0.4H-15
		c-0.5,0.1-1,0.2-1.4,0.5l-0.4,0.1l-0.2-0.3c-0.3-0.4-0.9-0.6-1.4-0.4c-0.3,0.1-0.6,0.4-0.8,0.7c-0.3,0.7,0,1.6,0.7,1.9l0.3,0.1v0.4
		c-0.1,0.4,0,0.9,0.1,1.3c0.3,0.8,1,1.5,1.8,1.8l1.3,0.5l-1.2,0.4c-0.8,0.8-1.5,1.7-2,2.7c-0.3,0.6-0.5,1.4-0.4,2.1
		c0,0.3,0.1,0.7,0.4,0.9c0.4,0.1,1.3-0.7,1.8-1.5l0.5-0.9l0.3,1c0.5,1.5,2.1,5.7,3.2,6.9c0.4,0.4,0.9,0.7,1.5,0.7
		c0.2,0,0.4-0.2,0.5-0.4c0.2-0.9,0.2-1.8-0.1-2.6c-0.1-0.2-0.1-0.3,0-0.5l0.1-0.3h0.3c0.2,0,0.4,0.2,0.5,0.4
		c0.6,1.4,1.3,2.2,1.8,2.3c0.4,0,0.7-0.3,0.8-0.7c0.1-0.3,0.2-0.6,0.2-0.9c0.1-1.5-1.2-5.8-1.7-7.4l-0.3-1l0.9,0.4
		c0.9,0.4,2.2,0.4,2.3,0.1C-5.6,356-5.7,355.7-5.9,355.4z M-15.5,352.2c-0.3,0.1-0.6-0.1-0.6-0.4c-0.1-0.2,0.1-0.5,0.3-0.6
		c0.3-0.1,0.6,0.1,0.6,0.4C-15.1,351.8-15.3,352.1-15.5,352.2z M-14.1,353c-0.3,0.1-0.6-0.1-0.6-0.4c-0.1-0.2,0.1-0.5,0.3-0.6
		c0.3-0.1,0.6,0.1,0.6,0.4C-13.8,352.6-13.9,352.8-14.1,353L-14.1,353z M-13.9,350.4c0.3-0.1,0.6,0.1,0.6,0.4
		c0.1,0.3-0.1,0.5-0.3,0.6c-0.3,0.1-0.6-0.1-0.6-0.4C-14.3,350.8-14.2,350.5-13.9,350.4L-13.9,350.4z"/>
	<path fill="#FFFFFF" d="M-9.5,352.2L1,342.4l2.5,2.6l-11.6,10.6l-1.2-3"/>
	<path fill="#7F3B96" d="M4.7,338.2c1.6,0,2.9,1.3,2.9,2.9c0,0.6-0.2,1.2-0.6,1.8l-1.2,1.2L1.7,340l1.2-1.2
		C3.4,338.4,4,338.2,4.7,338.2z M-10,351.7l-1.2,5.3l5.3-1.2L5,344.9l-4.1-4.1L-10,351.7z M1.9,344.9l-8.2,8.2l-1-1l8.2-8.2
		L1.9,344.9z"/>
</g>
</svg>
